…
``` r
nested_df
```

    ## # A tibble: 50 × 4
    ##    city_state    estimate conf.low conf.high
    ##    <chr>            <dbl>    <dbl>     <dbl>
    ##  1 AlbuquerqueNM    0.386    0.337     0.438
    ##  2 AtlantaGA        0.383    0.353     0.415
    ##  3 BaltimoreMD      0.646    0.628     0.663
    ##  4 Baton RougeLA    0.462    0.414     0.511
    ##  5 BirminghamAL     0.434    0.399     0.469
    ##  6 BostonMA         0.505    0.465     0.545
    ##  7 BuffaloNY        0.612    0.569     0.654
    ##  8 CharlotteNC      0.300    0.266     0.336
    ##  9 ChicagoIL        0.736    0.724     0.747
    ## 10 CincinnatiOH     0.445    0.408     0.483
    ## # … with 40 more rows
…
clean_arm_dataset
```

    ## # A tibble: 160 × 4
    ##    file_names subject_ID arm_value week 
    ##    <fct>      <fct>          <dbl> <fct>
    ##  1 Control    1               0.2  1    
    ##  2 Control    2               1.13 1    
    ##  3 Control    3               1.77 1    
    ##  4 Control    4               1.04 1    
    ##  5 Control    5               0.47 1    
    ##  6 Control    6               2.37 1    
    ##  7 Control    7               0.03 1    
    ##  8 Control    8              -0.08 1    
    ##  9 Control    9               0.08 1    
    ## 10 Control    10              2.14 1    
    ## # … with 150 more rows
…
``` r
result_as_data_frame <- 
  map_df(.x = iris_with_missing, ~fill_na(.x))

result_as_data_frame
```

    ## # A tibble: 150 × 5
    ##    Sepal.Length Sepal.Width Petal.Length Petal.Width Species
    ##           <dbl>       <dbl>        <dbl>       <dbl> <chr>  
    ##  1         5.1          3.5         1.4         0.2  setosa 
    ##  2         4.9          3           1.4         0.2  setosa 
    ##  3         4.7          3.2         1.3         0.2  setosa 
    ##  4         4.6          3.1         1.5         1.19 setosa 
    ##  5         5            3.6         1.4         0.2  setosa 
    ##  6         5.4          3.9         1.7         0.4  setosa 
    ##  7         5.82         3.4         1.4         0.3  setosa 
    ##  8         5            3.4         1.5         0.2  setosa 
    ##  9         4.4          2.9         1.4         0.2  setosa 
    ## 10         4.9          3.1         3.77        0.1  setosa 
    ## # … with 140 more rows
